\relax 
\@writefile{toc}{\contentsline {section}{\numberline {1}Insertion Sort}{2}}
\@writefile{toc}{\contentsline {subsection}{\numberline {1.1}Pseudo code}{2}}
\@writefile{toc}{\contentsline {subsection}{\numberline {1.2}Java code}{2}}
\@writefile{lol}{\contentsline {lstlisting}{java}{2}}
\@writefile{toc}{\contentsline {subsection}{\numberline {1.3}Loop Invariants }{2}}
\@writefile{toc}{\contentsline {section}{\numberline {2}Linear Search}{3}}
\@writefile{toc}{\contentsline {subsection}{\numberline {2.1}Pseudo code}{3}}
\@writefile{toc}{\contentsline {subsection}{\numberline {2.2}Java code}{3}}
\@writefile{toc}{\contentsline {subsection}{\numberline {2.3}Loop Invariants}{3}}
\@writefile{toc}{\contentsline {section}{\numberline {3}Merge sort}{4}}
\@writefile{toc}{\contentsline {subsection}{\numberline {3.1}Pseudo code)}{4}}
